{
  "$schema": "https://schema.management.azure.com/schemas/2015-01-01/deploymentParameters.json#",
  "contentVersion": "1.0.0.0",
  "parameters": {
    "clusterName": {
      "value": "mrpidevsfc01"
    },
    "clusterLocation": {
      "value": "northeurope"
    },
    "computeLocation": {
      "value": "northeurope"
    },
    "adminUserName": {
      "value": "cbefabricadmin"
    },
    "adminPassword": {
      "value": "cbe71755$$"
    },
    "nicName": {
      "value": "mrpidevsfc01-nic-01"
    },
    "publicIPAddressName": {
      "value": "mrpi-cbe-dev-pip-01"
    },
    "dnsName": {
      "value": "mrpi-cbe-dev-dns"
    },
    "virtualNetworkName": {
      "value": "mrpi-dev-vnet01"
    },
    "lbName": {
      "value": "mrpi-cbe-dev-lbp-01"
    },
    "lbIPName": {
      "value": "mrpi-cbe-dev-lbip-01"
    },
    "applicationDiagnosticsStorageAccountName": {
      "value": "mrpicbedevsfdiaglogs01"
    },
    "supportLogStorageAccountName": {
      "value": "mrpicbedevsfsuplogs01"
    },
    "sourceVaultValue": {
      "value": "/subscriptions/0931a735-1f02-4691-8def-cc44d7114de2/resourceGroups/CBE-ARM-Test/providers/Microsoft.KeyVault/vaults/mrpi-cbe-dev-kyv-10"
    },
    "certificateUrlValue": {
      "value": "https://mrpi-cbe-dev-kyv-10.vault.azure.net/secrets/ServiceFabricCert/91c5b60a8e3f49149a459c9ae12dff9e"
    },
    "certificateThumbprint": {
      "value": "EEFAB615E0FD9919AFAC693B6DD9F234304715E6"
    },
    "vmImageSku": {
      "value": "2016-Datacenter-with-Containers"
    },
    "vmImageOffer": {
      "value": "WindowsServer"
    },
    "nt0ephemeralStartPort": {
      "value": 49152
    },
    "nt0ephemeralEndPort": {
      "value": 65534
    },
    "nt0applicationStartPort": {
      "value": 20000
    },
    "nt0applicationEndPort": {
      "value": 30000
    },
    "nt0fabricTcpGatewayPort": {
      "value": 19000
    },
    "nt0fabricHttpGatewayPort": {
      "value": 19080
    },
    "nt0reverseProxyEndpointPort": {
      "value": 19081
    },
    "nt0InstanceCount": {
      "value": 5
    },
    "vmNodeType0Name": {
      "value": "devnode1"
    }
  }
}